\begin{thebibliography}{1}

\bibitem{ref}
Poulain Florent.
\newblock Analyse radiofréquence d'une clé de voiture.
\newblock {\em MISC 86}, juillet 2016.

\bibitem{ref2}
https://www.cars.com/articles/nicb-uncovers-car-theft-mystery-device-1420692567552/,
  Décembre 2016.

\bibitem{ref3}
https://www.01net.com/actualites/pourquoi-les-cles-sans-contact-de-nos-voitures-sont-toutes-vulnerables-1322585.html,
  Décembre 2017.

\end{thebibliography}
